Place,Name,Country,State,WeightClassKg,BodyweightKg,BirthDate,Age,Squat1Kg,Squat2Kg,Squat3Kg,Best3SquatKg,Bench1Kg,Bench2Kg,Bench3Kg,Best3BenchKg,Deadlift1Kg,Deadlift2Kg,Deadlift3Kg,Best3DeadliftKg,TotalKg,Squat4Kg,Bench4Kg,Deadlift4Kg,Event,Equipment,Sex,Division
1,Janet Montoya,,MS,48,46.75,,23,85,92.5,-100,92.5,50,52.5,55,55,125,132.5,-140,132.5,280,,,,SBD,Raw,F,Juniors 20-23
1,Briana Negron,,FL,52,51,,23,-137.5,-137.5,137.5,137.5,92.5,-98,-98,92.5,167.5,-175.5,-175.5,167.5,397.5,,,,SBD,Raw,F,Juniors 20-23
2,Heather Grimes,,AL,52,50.7,,21,122.5,-127.5,-127.5,122.5,62.5,65,-67.5,65,125,132.5,137.5,137.5,325,,,,SBD,Raw,F,Juniors 20-23
1,Hannah Enamorado,,LA,56,54.3,,19,100,-107.5,107.5,107.5,57.5,-60,-60,57.5,132.5,137.5,-142.5,137.5,302.5,,,,SBD,Raw,F,Juniors 15-19
1,Haley Devers,,PA,56,52.85,,21,132.5,142.5,-147.5,142.5,100,-108,108,108,140,147.5,155,155,405.5,,,,SBD,Raw,F,Juniors 20-23
1,Jessica Desatnick,,FL,60,58.6,,20,-130,130,-142.5,130,85,90,-92.5,90,127.5,135,-142.5,135,355,,,,SBD,Raw,F,Juniors 20-23
1,Taylor Castille,,LA,110+,166.95,,20,207.5,227.5,235,235,92.5,105,112.5,112.5,182.5,195,210,210,557.5,,,,SBD,Raw,F,Juniors 20-23
1,Symone Mckenzie,,GA,48,46.9,,28,-100,100,105,105,-52.5,52.5,55,55,145,150,-160,150,310,,,,SBD,Raw,F,Open
2,Tori Lam,,UT,48,47.7,,33,30,,,30,50,-52.5,-52.5,50,30,,,30,110,,,,SBD,Raw,F,Open
1,Briana Negron,,FL,52,51,,23,-137.5,-137.5,137.5,137.5,92.5,-98,-98,92.5,167.5,-175.5,-175.5,167.5,397.5,,,,SBD,Raw,F,Open
2,Heather Grimes,,AL,52,50.7,,21,122.5,-127.5,-127.5,122.5,62.5,65,-67.5,65,125,132.5,137.5,137.5,325,,,,SBD,Raw,F,Open
3,Gisela Salazar,,ID,52,50.7,,28,80,-92.5,95,95,45,47.5,-52.5,47.5,155,165,-170,165,307.5,,,,SBD,Raw,F,Open
4,Michelle Tyrie,,AL,52,48.95,,37,-97.5,97.5,100,100,70,-75,-75,70,117.5,122.5,127.5,127.5,297.5,,,,SBD,Raw,F,Open
5,Margie Haddon,,TX,52,50.9,,60,87.5,93.5,95,95,47.5,50,-52.5,50,110,112.5,117.5,117.5,262.5,,,,SBD,Raw,F,Open
1,Jenn Rotsinger,,FL,56,52.75,,44,147.5,157.5,162.5,162.5,85,90,92.5,92.5,180,190,195,195,450,,,201,SBD,Raw,F,Open
2,Haley Devers,,PA,56,52.85,,21,132.5,142.5,-147.5,142.5,100,-108,108,108,140,147.5,155,155,405.5,,,,SBD,Raw,F,Open
3,Hannah Enamorado,,LA,56,54.3,,19,100,-107.5,107.5,107.5,57.5,-60,-60,57.5,132.5,137.5,-142.5,137.5,302.5,,,,SBD,Raw,F,Open
4,Patricia Duboise,,GA,56,54.55,,55,80,-85,85,85,57.5,62.5,-65,62.5,117.5,125,135,135,282.5,,,,SBD,Raw,F,Open
1,Paige Kimball,,LA,60,59.55,,32,125,130,-132.5,130,-82.5,82.5,-87.5,82.5,165,-175,-175,165,377.5,,,,SBD,Raw,F,Open
2,Jessica Desatnick,,FL,60,58.6,,20,-130,130,-142.5,130,85,90,-92.5,90,127.5,135,-142.5,135,355,,,,SBD,Raw,F,Open
3,Tiffanie Lindsey,,VA,60,59.55,,32,122.5,-130,-130,122.5,65,67.5,70,70,147.5,-157.5,157.5,157.5,350,,,,SBD,Raw,F,Open
1,Valerie Smith #1,,GA,67.5,66.4,,48,155,163,167.5,167.5,113.5,-117.5,-117.5,113.5,185,200.5,-212.5,200.5,481.5,,,,SBD,Raw,F,Open
2,Michelle Mazulis,,NM,67.5,65.75,,54,140,155,-165.5,155,90,96.5,-100,96.5,155,172.5,-182.5,172.5,424,,,,SBD,Raw,F,Open
3,Crystal Elmore,,AL,67.5,62.45,,40,147.5,152.5,157.5,157.5,72.5,77.5,82.5,82.5,145,150,155,155,395,,,,SBD,Raw,F,Open
1,Kristine Kobza,,AZ,75,74.3,,55,150,160,167.5,167.5,95,102.5,,102.5,185,197.5,203,203,473,,,,SBD,Raw,F,Open
2,Ronnee Hicks,,AL,75,72.8,,34,152.5,160,165,165,77.5,82.5,87.5,87.5,172.5,185,187.5,187.5,440,,,,SBD,Raw,F,Open
3,April Johnson,,MI,75,74,,42,-135,-142.5,142.5,142.5,77.5,80,82.5,82.5,147.5,-162.5,162.5,162.5,387.5,,,,SBD,Raw,F,Open
1,Rebecca Gigliotti,,CA,82.5,79.9,,28,150,-165,165,165,85,97.5,-102.5,97.5,180,190,-202.5,190,452.5,,,,SBD,Raw,F,Open
2,Rae Ballard,,GA,82.5,80.8,,47,107.5,115,-127.5,115,75,80,-85,80,152.5,165,170,170,365,,,,SBD,Raw,F,Open
1,Caitlin Ciaccio,,LA,100,98.6,,30,172.5,177.5,-180,177.5,85,90,-92.5,90,165,170,172.5,172.5,440,,,,SBD,Raw,F,Open
2,Debbie Fitkin,,IA,100,100,,65,-105,105,110,110,50,55,-60,55,115,125,130,130,295,,,,SBD,Raw,F,Open
1,Taylor Castille,,LA,110+,166.95,,20,207.5,227.5,235,235,92.5,105,112.5,112.5,182.5,195,210,210,557.5,,,,SBD,Raw,F,Open
1,Leslie Cook,,AZ,52,50.9,,52,82.5,87.5,92.5,92.5,55,57.5,-60,57.5,125,140,-142.5,140,290,,,,SBD,Raw,F,Masters 50-54
1,Margie Haddon,,TX,52,50.9,,60,87.5,93.5,95,95,47.5,50,-52.5,50,110,112.5,117.5,117.5,262.5,,,,SBD,Raw,F,Masters 60-64
1,Dottie Michaud,,MA,52,49.4,,66,77.5,-85,-85,77.5,45,-47.5,47.5,47.5,105,120,122.5,122.5,247.5,,,125,SBD,Raw,F,Masters 65-69
1,Jenn Rotsinger,,FL,56,52.75,,44,147.5,157.5,162.5,162.5,85,90,92.5,92.5,180,190,195,195,450,,,201,SBD,Raw,F,Masters 40-44
2,Rhonda Freeman,,KS,56,56,,42,-110,-110,110,110,75,77.5,-80,77.5,130,137.5,142.5,142.5,330,,,,SBD,Raw,F,Masters 40-44
1,Patricia Duboise,,GA,56,54.55,,55,80,-85,85,85,57.5,62.5,-65,62.5,117.5,125,135,135,282.5,,,,SBD,Raw,F,Masters 55-59
2,Rebecca Carter,,FL,56,54.9,,56,95,-102.5,-102.5,95,60,65,67.5,67.5,107.5,115,117.5,117.5,280,,,,SBD,Raw,F,Masters 55-59
1,Charlene Mizner,,AZ,56,53.89,,67,52.5,57.5,-60,57.5,27.5,30,32.5,32.5,97.5,102.5,-105,102.5,192.5,,,,SBD,Raw,F,Masters 65-69
1,Christina Briggs,,NJ,60,59.45,,53,127.5,-137.5,137.5,137.5,67.5,72.5,-75,72.5,-167.5,167.5,-177.5,167.5,377.5,,,,SBD,Raw,F,Masters 50-54
1,Crystal Elmore,,AL,67.5,62.45,,40,147.5,152.5,157.5,157.5,72.5,77.5,82.5,82.5,145,150,155,155,395,,,,SBD,Raw,F,Masters 40-44
1,Valerie Smith #1,,GA,67.5,66.4,,48,155,163,167.5,167.5,113.5,-117.5,-117.5,113.5,185,200.5,-212.5,200.5,481.5,,,,SBD,Raw,F,Masters 45-49
1,Michelle Mazulis,,NM,67.5,65.75,,54,140,155,-165.5,155,90,96.5,-100,96.5,155,172.5,-182.5,172.5,424,,,,SBD,Raw,F,Masters 50-54
1,Natalie Terrell,,AL,67.5,66.15,,62,110,120,125,125,30,-37.5,-37.5,30,165,175,177.5,177.5,332.5,,,,SBD,Raw,F,Masters 60-64
1,April Johnson,,MI,75,74,,42,-135,-142.5,142.5,142.5,77.5,80,82.5,82.5,147.5,-162.5,162.5,162.5,387.5,,,,SBD,Raw,F,Masters 40-44
2,Jessica Skarin,,LA,75,74.05,,40,130,137.5,142.5,142.5,80,85,90,90,132.5,145,155,155,387.5,,,,SBD,Raw,F,Masters 40-44
1,Kelly Walters,,NV,75,73.9,,51,132.5,140,145,145,60,65,-70,65,165,175,-182.5,175,385,,,,SBD,Raw,F,Masters 50-54
1,Kristine Kobza,,AZ,75,74.3,,55,150,160,167.5,167.5,95,102.5,,102.5,185,197.5,203,203,473,,,,SBD,Raw,F,Masters 55-59
1,Rae Ballard,,GA,82.5,80.8,,47,107.5,115,-127.5,115,75,80,-85,80,152.5,165,170,170,365,,,,SBD,Raw,F,Masters 45-49
1,Mari Saydal,,FL,82.5,81.9,,55,-97.5,97.5,105,105,-67.5,67.5,72.5,72.5,117.5,125,-130,125,302.5,,,,SBD,Raw,F,Masters 55-59
1,Leah Michael,,LA,82.5,79.9,,67,121,137.5,142.5,142.5,93,100,105,105,152.5,167.5,182.5,182.5,430,,,,SBD,Raw,F,Masters 65-69
1,Linda Ray,,MO,100,98.3,,62,122.5,127.5,-137.5,127.5,77.5,85,-94,85,160,175,-180,175,387.5,,,,SBD,Raw,F,Masters 60-64
1,Debbie Fitkin,,IA,100,100,,65,-105,105,110,110,50,55,-60,55,115,125,130,130,295,,,,SBD,Raw,F,Masters 65-69
1,Deklan Schnupp,,VA,56,54.9,,15,155,165,172.5,172.5,80,87.5,-90,87.5,177.5,185,190,190,450,175,,,SBD,Raw,M,Juniors 15-19
2,Andrew Siharath,,TN,56,54.95,,18,140,-147.5,150,150,-92.5,92.5,95,95,182.5,192.5,-202.5,192.5,437.5,,,,SBD,Raw,M,Juniors 15-19
1,Happy Butler,,LA,60,59.9,,18,-182.5,182.5,-187.5,182.5,105,110,-115,110,220,232.5,-242.5,232.5,525,,,,SBD,Raw,M,Juniors 15-19
1,Thivian Chelliah,Canada,,60,60,,23,125,-142.5,142.5,142.5,110,115,-125,115,160,162.5,-180,162.5,420,,,,SBD,Raw,M,Juniors 20-23
1,Kevin Vannice,,FL,67.5,67.4,,19,185,-197.5,-197.5,185,125,137.5,145,145,142.5,165,-170,165,495,,,,SBD,Raw,M,Juniors 15-19
1,McVay Stockwell,,LA,75,74.8,,19,260,-277.5,-277.5,260,150,-165,-165,150,255,282.5,-300,282.5,692.5,,,,SBD,Raw,M,Juniors 15-19
2,Jacob Saloom,,LA,75,72.7,,15,155,162.5,172.5,172.5,90,95,-97.5,95,137.5,,,137.5,405,,,,SBD,Raw,M,Juniors 15-19
DQ,Jason Mackay,,WA,75,73.4,,18,-185,-185,-185,,-137.5,-137.5,137.5,137.5,-190,202.5,,202.5,,,,,SBD,Raw,M,Juniors 15-19
1,Zaine Pollard-Kennedy,,IN,75,71.9,,23,-215,215,-220,215,-137.5,137.5,-142.5,137.5,190,232.5,240,240,592.5,,,,SBD,Raw,M,Juniors 20-23
1,Scott Carter,,FL,82.5,78.5,,17,-195,200,-210,200,-137.5,142.5,150,150,227.5,245,-260,245,595,,,,SBD,Raw,M,Juniors 15-19
1,Santiago Roldan,Colombia,,82.5,79.3,,21,245,260,272.5,272.5,142.5,150,-155,150,285,300,-310,300,722.5,,,,SBD,Raw,M,Juniors 20-23
2,Andrew Wilkerson,,AL,82.5,81.3,,23,210,-222.5,,210,137.5,140,142.5,142.5,255,-262.5,-262.5,255,607.5,,,,SBD,Raw,M,Juniors 20-23
3,Daleny Sivilay,,TN,82.5,82.5,,23,220,-230,-232.5,220,140,-147.5,147.5,147.5,220,-227.5,-227.5,220,587.5,,,,SBD,Raw,M,Juniors 20-23
1,Tyler Keller,,LA,90,89.8,,17,260,277.5,-280,277.5,137.5,145,-150,145,305,-320,320,320,742.5,,,,SBD,Raw,M,Juniors 15-19
2,Ethan Yodanza,,LA,90,89.2,,19,252.5,-265,272.5,272.5,165,177.5,-182.5,177.5,280,290,-300,290,740,,,,SBD,Raw,M,Juniors 15-19
3,Jake Martin,,NY,90,89.1,,19,240,-257.5,-272.5,240,175,192.5,208,208,240,257.5,275,275,723,,,,SBD,Raw,M,Juniors 15-19
4,Kurtis Schuyler,,AL,90,84.7,,16,215,227.5,-232.5,227.5,150,-160,-160,150,267.5,-275,-285,267.5,645,,,,SBD,Raw,M,Juniors 15-19
5,Carson Randall,,NM,90,85.4,,19,-192.5,-205,205,205,112.5,-120,-122.5,112.5,230,-245,-260,230,547.5,,,,SBD,Raw,M,Juniors 15-19
6,Gustave Smalley,UK,,90,88.2,,16,150,200,217.5,217.5,70,90,-102.5,90,150,200,225,225,532.5,,,,SBD,Raw,M,Juniors 15-19
1,Wade Mercier,,AL,90,89.9,,22,275,-290,305,305,147.5,155,-162.5,155,265,-277.5,277.5,277.5,737.5,,,,SBD,Raw,M,Juniors 20-23
2,Grayson Frazier,,AL,90,89.7,,22,245,257.5,-265,257.5,170,180,187.5,187.5,252.5,262.5,275,275,720,,,,SBD,Raw,M,Juniors 20-23
3,Conner White,,GA,90,89.7,,20,245,255,262.5,262.5,155,167.5,-180,167.5,237.5,247.5,250,250,680,,,,SBD,Raw,M,Juniors 20-23
4,Bennett McCann,,VA,90,88.3,,23,200,212.5,-227.5,212.5,125,132.5,140,140,285,300,310,310,662.5,,,,SBD,Raw,M,Juniors 20-23
1,Cody Wilson #1,,OH,100,98.7,,20,287.5,302.5,317.5,317.5,205,220,-232.5,220,297.5,312.5,-325,312.5,850,,,,SBD,Raw,M,Juniors 20-23
1,Michael Albertson,,AL,110,107.9,,18,235,247.5,257.5,257.5,-142.5,142.5,152.5,152.5,282.5,295,305,305,715,,,320,SBD,Raw,M,Juniors 15-19
2,Zane Manchack,,AR,110,109.5,,18,-230,237.5,-245,237.5,165,172.5,-177.5,172.5,250,260,-265,260,670,,,,SBD,Raw,M,Juniors 15-19
1,Zachary Bailey,,TN,110,105.3,,21,232.5,242.5,250,250,147.5,152.5,157.5,157.5,265,277.5,-285,277.5,685,,,,SBD,Raw,M,Juniors 20-23
1,Jacob Crumbly,,VA,125,120.9,,23,-292.5,310,322.5,322.5,170,180,-187.5,180,290,305,317.5,317.5,820,,,,SBD,Raw,M,Juniors 20-23
1,Christian Suggs,,FL,140+,150.4,,17,225,240,-245,240,160,172.5,177.5,177.5,235,255,-272.5,255,672.5,,,,SBD,Raw,M,Juniors 15-19
1,Happy Butler,,LA,60,59.9,,18,-182.5,182.5,-187.5,182.5,105,110,-115,110,220,232.5,-242.5,232.5,525,,,,SBD,Raw,M,Open
2,Tony Huynh,,FL,60,60,,30,177.5,182.5,190,190,105,112.5,-122.5,112.5,200,217.5,-227.5,217.5,520,,,,SBD,Raw,M,Open
3,Anthony Bui #1,,LA,60,60,,31,160,170,-177.5,170,105,-112.5,117.5,117.5,210,227.5,-242.5,227.5,515,,,,SBD,Raw,M,Open
4,Paul Remedios,,LA,60,60,,36,162.5,170,172.5,172.5,117.5,120,,120,195,205,-207.5,205,497.5,,,,SBD,Raw,M,Open
1,Cole Lavergne,,LA,67.5,67.2,,39,170,182.5,192.5,192.5,120,127.5,,127.5,212.5,227.5,240,240,560,,,,SBD,Raw,M,Open
2,Sebastian Rodriguez,,FL,67.5,67.4,,33,175,-182.5,182.5,182.5,-110,110,-112.5,110,187.5,195,202.5,202.5,495,,,,SBD,Raw,M,Open
1,McVay Stockwell,,LA,75,74.8,,19,260,-277.5,-277.5,260,150,-165,-165,150,255,282.5,-300,282.5,692.5,,,,SBD,Raw,M,Open
2,Vincent Yacuzzi Jr,,FL,75,73.6,,34,210,217.5,227.5,227.5,130,140,142.5,142.5,240,255,265,265,635,,,,SBD,Raw,M,Open
3,Ryan Hudson,,OR,75,74.9,,43,220,227.5,231,231,130,137.5,-140,137.5,220,227.5,232.5,232.5,601,,,,SBD,Raw,M,Open
4,Casey McGee,,FL,75,74.4,,40,215,-230,-232.5,215,125,-140,-140,125,215,225,-237.5,225,565,,,,SBD,Raw,M,Open
1,Andrew Linch,,MS,82.5,81.8,,29,250,270,-277.5,270,150,162.5,177.5,177.5,305,322.5,-330,322.5,770,,,,SBD,Raw,M,Open
2,Todd Straub,,OH,82.5,81.7,,42,225,240,250,250,172.5,182.5,190,190,280,297.5,310,310,750,,,317.5,SBD,Raw,M,Open
3,Santiago Roldan,Colombia,,82.5,79.3,,21,245,260,272.5,272.5,142.5,150,-155,150,285,300,-310,300,722.5,,,,SBD,Raw,M,Open
4,James Overstreet,,AL,82.5,81.5,,25,235,247.5,257.5,257.5,140,147.5,155,155,262.5,-272.5,272.5,272.5,685,,,,SBD,Raw,M,Open
5,Santiago Velasquez,Colombia,,82.5,81.3,,30,200,210,215,215,152.5,157.5,-160,157.5,-290,305,-320,305,677.5,,,,SBD,Raw,M,Open
6,Andrew Wilkerson,,AL,82.5,81.3,,23,210,-222.5,,210,137.5,140,142.5,142.5,255,-262.5,-262.5,255,607.5,,,,SBD,Raw,M,Open
1,Terry Montgomery,,KS,90,89.8,,27,255,260,265,265,172.5,-177.5,-177.5,172.5,310,327.5,342.5,342.5,780,,,,SBD,Raw,M,Open
2,Xavier Romero,,AZ,90,89.1,,27,310,320,-325,320,152.5,-162.5,-162.5,152.5,285,300,305,305,777.5,,,,SBD,Raw,M,Open
3,Ethan Featherstone,,FL,90,89.9,,24,245,260,-265,260,170,180,182.5,182.5,300,322.5,-332.5,322.5,765,,,,SBD,Raw,M,Open
4,Tyler Keller,,LA,90,89.8,,17,260,277.5,-280,277.5,137.5,145,-150,145,305,-320,320,320,742.5,,,,SBD,Raw,M,Open
5,Ethan Yodanza,,LA,90,89.2,,19,252.5,-265,272.5,272.5,165,177.5,-182.5,177.5,280,290,-300,290,740,,,,SBD,Raw,M,Open
6,Wade Mercier,,AL,90,89.9,,22,275,-290,305,305,147.5,155,-162.5,155,265,-277.5,277.5,277.5,737.5,,,,SBD,Raw,M,Open
7,Jake Martin,,NY,90,89.1,,19,240,-257.5,-272.5,240,175,192.5,208,208,240,257.5,275,275,723,,,,SBD,Raw,M,Open
8,Adam Rubin,,OH,90,87.2,,29,-250,250,-262.5,250,142.5,152.5,155,155,257.5,-272.5,-272.5,257.5,662.5,,,,SBD,Raw,M,Open
1,Demerrius Slocum,,LA,100,100,,37,307.5,327.5,,327.5,217.5,-232.5,232.5,232.5,300,325,-330,325,885,,,,SBD,Raw,M,Open
2,Cody Wilson #1,,OH,100,98.7,,20,287.5,302.5,317.5,317.5,205,220,-232.5,220,297.5,312.5,-325,312.5,850,,,,SBD,Raw,M,Open
3,Vasil Gushterov,,FL,100,99.4,,47,240,255,265,265,185,195,200,200,305,325,340,340,805,,,350,SBD,Raw,M,Open
4,Tristan Johnson,,AZ,100,99.4,,24,-287.5,-287.5,287.5,287.5,175,182.5,-185,182.5,287.5,-302.5,302.5,302.5,772.5,,,,SBD,Raw,M,Open
1,Ryan Andujar,,AL,110,108.2,,29,-297.5,305,320,320,205,212.5,-220,212.5,-317.5,317.5,332.5,332.5,865,,,,SBD,Raw,M,Open
2,Mason Ducote,,LA,110,110,,26,290,-300,307.5,307.5,192.5,200,-207.5,200,305,320,330,330,837.5,,,,SBD,Raw,M,Open
3,Travis Calloway,,GA,110,107.6,,36,300,-322.5,-322.5,300,227.5,-242.5,-242.5,227.5,287.5,305,-310,305,832.5,,,,SBD,Raw,M,Open
4,Carson Windle,,AL,110,109.4,,28,275,292.5,305,305,175,182.5,-192.5,182.5,290,307.5,320,320,807.5,,,,SBD,Raw,M,Open
5,Eric Chatman,,MS,110,108.9,,27,255,265,272.5,272.5,175,-182.5,-182.5,175,325,342.5,-352.5,342.5,790,,,,SBD,Raw,M,Open
6,Eugene Ring,,NY,110,103.4,,59,272.5,275,-280,275,182.5,187.5,-192.5,187.5,280,285,290,290,752.5,,,,SBD,Raw,M,Open
7,Demetrius Kelley,,OK,110,107.2,,36,272.5,277.5,-282.5,277.5,177.5,182.5,-187.5,182.5,275,277.5,,277.5,737.5,,,,SBD,Raw,M,Open
8,Michael Albertson,,AL,110,107.9,,18,235,247.5,257.5,257.5,-142.5,142.5,152.5,152.5,282.5,295,305,305,715,,,320,SBD,Raw,M,Open
DQ,Dylan Vaughn,,LA,110,108.5,,27,302.5,317.5,-327.5,317.5,-192.5,-192.5,-192.5,,-305,-305,,,,,,,SBD,Raw,M,Open
1,Robert Knutsson,,OH,125,123.4,,35,330,-347.5,347.5,347.5,210,-215,215,215,365,-385,-385,365,927.5,,,,SBD,Raw,M,Open
2,Hart Mizell,,GA,125,120.3,,31,250,272.5,280,280,165,182.5,-190,182.5,265,282.5,295,295,757.5,,,,SBD,Raw,M,Open
3,Austen Horton,,TX,125,122.5,,45,272.5,-283,-283,272.5,125,137.5,,137.5,215,247.5,272.5,272.5,682.5,,,,SBD,Raw,M,Open
1,Sam Guion,,VA,140,133,,26,240,270,287.5,287.5,172.5,192.5,-207.5,192.5,285,320,337.5,337.5,817.5,,,,SBD,Raw,M,Open
2,Matthew Selover,,FL,140,132.2,,35,277.5,287.5,292.5,292.5,160,-167.5,167.5,167.5,282.5,-300,-312.5,282.5,742.5,,,,SBD,Raw,M,Open
1,Zebulun Drake,,MS,140+,141.6,,28,365,382.5,392.5,392.5,227.5,242.5,245,245,365,380,390.5,390.5,1028,,,,SBD,Raw,M,Open
2,Marvin Williford,,AL,140+,161.2,,48,245,265,277.5,277.5,177.5,185,190,190,250,272.5,-295,272.5,740,,,,SBD,Raw,M,Open
1,Lon Kilgore,,MO,67.5,67.4,,63,120,127.5,130,130,92.5,-98,98,98,125,-132.5,-132.5,125,353,,,,SBD,Raw,M,Masters 60-64
1,Joseph Fleming,,CA,67.5,66.5,,76,105,110,112.5,112.5,77.5,82.5,-85,82.5,150,158,162.5,162.5,357.5,,,,SBD,Raw,M,Masters 75-79
1,Ryan Hudson,,OR,75,74.9,,43,220,227.5,231,231,130,137.5,-140,137.5,220,227.5,232.5,232.5,601,,,,SBD,Raw,M,Masters 40-44
2,Casey McGee,,FL,75,74.4,,40,215,-230,-232.5,215,125,-140,-140,125,215,225,-237.5,225,565,,,,SBD,Raw,M,Masters 40-44
1,Neil Touchet,,LA,75,74.3,,56,160,167.5,175,175,110,117.5,120,120,192.5,202.5,212.5,212.5,507.5,,,,SBD,Raw,M,Masters 55-59
1,Michael Harrington,,AZ,75,75,,84,75,-82.5,82.5,82.5,62.5,-67.5,-67.5,62.5,125,132.5,135,135,280,,,,SBD,Raw,M,Masters 80+
1,Todd Straub,,OH,82.5,81.7,,42,225,240,250,250,172.5,182.5,190,190,280,297.5,310,310,750,,,317.5,SBD,Raw,M,Masters 40-44
2,Chris Holcomb,,TX,82.5,79.9,,41,220,230,235,235,140,150,-157.5,150,237.5,-250,,237.5,622.5,,,,SBD,Raw,M,Masters 40-44
1,Darrel Dryden,,NM,82.5,80.6,,46,-182.5,182.5,-228,182.5,142.5,-160,-160,142.5,182.5,205,-227.5,205,530,,,,SBD,Raw,M,Masters 45-49
1,Brad Trosper,,IN,82.5,80.1,,52,190,-197.5,200,200,122.5,127.5,-130,127.5,205,217.5,227.5,227.5,555,,,,SBD,Raw,M,Masters 50-54
1,Ron Garofalo,,CO,82.5,81.9,,61,217.5,235,237.5,237.5,130,-135,-135,130,255,272.5,285,285,652.5,,,,SBD,Raw,M,Masters 60-64
2,Joe Hays,,MN,82.5,81.8,,62,,-180,180,180,105,110,112.5,112.5,195,205,217.5,217.5,510,,,,SBD,Raw,M,Masters 60-64
3,Jeff Denson,,LA,82.5,80.3,,61,-125,125,137.5,137.5,112.5,122.5,127.5,127.5,182.5,192.5,200,200,465,,,,SBD,Raw,M,Masters 60-64
1,David Scharf,,NY,82.5,79.5,,67,80,112.5,-140,112.5,55,70,72.5,72.5,142.5,165,187.5,187.5,372.5,,,,SBD,Raw,M,Masters 65-69
1,Matt Barrow,,MD,90,86.9,,43,220,230,232.5,232.5,150,162.5,165,165,240,257.5,-262.5,257.5,655,,,,SBD,Raw,M,Masters 40-44
1,Matt Grooms,,MO,90,89.8,,48,252.5,-265,265,265,162.5,172.5,-180,172.5,265,272.5,280,280,717.5,,,,SBD,Raw,M,Masters 45-49
2,Kevin Velasco,,MD,90,86,,45,200,212.5,217.5,217.5,155,162.5,167.5,167.5,230,245,252.5,252.5,637.5,,,,SBD,Raw,M,Masters 45-49
3,Christopher Rountree,,TX,90,89.4,,46,202.5,212.5,222.5,222.5,92.5,105,,105,255,272.5,-282.5,272.5,600,,,,SBD,Raw,M,Masters 45-49
1,John Rowland,,GA,90,89.9,,51,227.5,237.5,,237.5,150,160,-165,160,275,287.5,-298,287.5,685,,,,SBD,Raw,M,Masters 50-54
2,Shane Shorter,,FL,90,88.6,,53,165,175,182.5,182.5,125,130,-132.5,130,232.5,242.5,255,255,567.5,,,,SBD,Raw,M,Masters 50-54
1,Randy Chandler,,TN,90,89.9,,58,180,-190,190,190,125,130,-135,130,190,205,212.5,212.5,532.5,,,,SBD,Raw,M,Masters 55-59
2,Eddie Crum,,CO,90,88.1,,57,-150,150,,150,-122.5,122.5,125,125,212.5,220,-230,220,495,,,,SBD,Raw,M,Masters 55-59
1,Michael Regan,,SC,90,87.1,,62,122.5,-132.5,140,140,-72.5,72.5,82.5,82.5,160,172.5,,172.5,395,,,,SBD,Raw,M,Masters 60-64
1,Vasil Gushterov,,FL,100,99.4,,47,240,255,265,265,185,195,200,200,305,325,340,340,805,,,350,SBD,Raw,M,Masters 45-49
2,Charles Weidner,,NV,100,96.2,,48,240,-247.5,-252.5,240,127.5,147.5,-165,147.5,290,297.5,-305,297.5,685,,,,SBD,Raw,M,Masters 45-49
3,August Schmidt,,AZ,100,98.6,,48,220,230,-240,230,150,155,162.5,162.5,260,272.5,285,285,677.5,,,,SBD,Raw,M,Masters 45-49
4,Chip Holston,,FL,100,94.2,,48,205,222.5,232.5,232.5,137.5,145,-152.5,145,215,230,242.5,242.5,620,,,,SBD,Raw,M,Masters 45-49
1,Vance Wallace,,MO,100,97.4,,51,175,195,210,210,182.5,195,-197.5,195,182.5,195,212.5,212.5,617.5,,,,SBD,Raw,M,Masters 50-54
DQ,Scott Sizer,,PA,100,98.2,,53,185,200,-210,200,-185,-185,-185,,185,200,-210,200,,,,,SBD,Raw,M,Masters 50-54
1,Michael Brown #1,,TN,100,98.8,,65,152.5,160,-165,160,137.5,140,145,145,170,180,-195,180,485,,,,SBD,Raw,M,Masters 65-69
1,Vito Cardenal,,LA,110,108,,41,255,267.5,-280,267.5,170,180,185,185,242.5,260,-275,260,712.5,,,,SBD,Raw,M,Masters 40-44
1,Victor Wright,,FL,110,107.4,,51,-207.5,207.5,217.5,217.5,170,185,-187.5,185,205,227.5,240,240,642.5,,,,SBD,Raw,M,Masters 50-54
1,Eugene Ring,,NY,110,103.4,,59,272.5,275,-280,275,182.5,187.5,-192.5,187.5,280,285,290,290,752.5,,,,SBD,Raw,M,Masters 55-59
1,Tod Miller,,GA,110,108.5,,61,125,135,147.5,147.5,170,177.5,182.5,182.5,-195,197.5,210,210,540,,,,SBD,Raw,M,Masters 60-64
1,Henry Henington,,MS,110,102.7,,80,75,-85,85,85,75,-80,80,80,115,122.5,130,130,295,,,,SBD,Raw,M,Masters 80+
1,Reginald Walker,,TN,125,123.9,,47,217.5,230,237.5,237.5,170,177.5,182.5,182.5,272.5,287.5,305,305,725,,,,SBD,Raw,M,Masters 45-49
2,Austen Horton,,TX,125,122.5,,45,272.5,-283,-283,272.5,125,137.5,,137.5,215,247.5,272.5,272.5,682.5,,,,SBD,Raw,M,Masters 45-49
1,Robert Kinnamon,,OH,125,124.3,,52,227.5,240,250,250,157.5,167.5,175,175,245,262.5,272.5,272.5,697.5,,,,SBD,Raw,M,Masters 50-54
1,Brendan Burke,,FL,125,112.9,,58,175,182.5,192.5,192.5,152.5,162.5,-170,162.5,215,227.5,-235,227.5,582.5,,,,SBD,Raw,M,Masters 55-59
1,Tim Womack,,AL,125,115.4,,61,185,192.5,197.5,197.5,140,147.5,-150,147.5,215,227.5,232.5,232.5,577.5,,,,SBD,Raw,M,Masters 60-64
2,Robert Thomas,,GA,125,116,,61,182.5,197.5,212.5,212.5,125,142.5,-147.5,142.5,190,200,212.5,212.5,567.5,,,,SBD,Raw,M,Masters 60-64
3,Jacques Morgan,,NY,125,114.8,,60,165,175,182.5,182.5,105,110,-115,110,210,220,225,225,517.5,,,,SBD,Raw,M,Masters 60-64
1,Jamie Shifflett,,MD,140,131.6,,52,247.5,267.5,-275,267.5,227.5,-240.5,-240.5,227.5,265,-280,-280,265,760,,,,SBD,Raw,M,Masters 50-54
1,Michael Lloyd,,GA,140,135,,55,190,205,212.5,212.5,150,165,-175,165,205,227.5,232.5,232.5,610,,,,SBD,Raw,M,Masters 55-59
1,Josh Thiel,,TX,140+,147.2,,46,295,307.5,320,320,185,195,200,200,298,312.5,320,320,840,,,,SBD,Raw,M,Masters 45-49
2,Marvin Williford,,AL,140+,161.2,,48,245,265,277.5,277.5,177.5,185,190,190,250,272.5,-295,272.5,740,,,,SBD,Raw,M,Masters 45-49
1,Robert Gains,,VA,140+,151,,59,210,227.5,-242.5,227.5,-182.5,182.5,,182.5,240,257.5,-272.5,257.5,667.5,,,,SBD,Raw,M,Masters 55-59
1,Catalina Pineda,Chile,,56,55.6,,22,150,-160,-165,150,60,-70,70,70,170,185,-192.5,185,405,,,,SBD,Wraps,F,Juniors 20-23
1,Ayelén Agustina Noguera,Argentina,,52,51.4,,30,160,-170,-175.5,160,60,65,70,70,132.5,142.5,150,150,380,,,,SBD,Wraps,F,Open
2,Valentina Páez Morales,Chile,,52,50.65,,31,-110,-110,115,115,40,45,50,50,125,-135,135,135,300,,,,SBD,Wraps,F,Open
1,Xaviera Navarro,Chile,,56,53.75,,35,150,157.5,-160,157.5,75,80,-85,80,155,162.5,170,170,407.5,,,,SBD,Wraps,F,Open
2,Catalina Pineda,Chile,,56,55.6,,22,150,-160,-165,150,60,-70,70,70,170,185,-192.5,185,405,,,,SBD,Wraps,F,Open
1,Melissa Ferranto,,NC,67.5,65.65,,34,182.5,-190,190,190,92.5,97.5,-100,97.5,175,185,192.5,192.5,480,,,,SBD,Wraps,F,Open
1,Jasmine Barber,,GA,82.5,80.6,,31,182.5,-197.5,197.5,197.5,102.5,110,-117.5,110,162.5,187.5,200,200,507.5,,,,SBD,Wraps,F,Open
1,Mariela Ortellado,Argentina,,100,99,,37,220,-230,230,230,125,130,135,135,220,230,240,240,605,,,,SBD,Wraps,F,Open
1,Michelle Abram,,WA,110,106.2,,52,-192.5,192.5,-197.5,192.5,107.5,115,-120,115,182.5,192.5,-205,192.5,500,,,,SBD,Wraps,F,Open
1,Gin Havard,,MO,67.5,61.8,,42,125,140,-145,140,55,60,62.5,62.5,140,152.5,162.5,162.5,365,,,,SBD,Wraps,F,Masters 40-44
1,Tina Hosang Phillips,,FL,75,73.3,,51,147.5,-152.5,,147.5,72.5,75.5,-77.5,75.5,147.5,156.5,-162.5,156.5,379.5,,,,SBD,Wraps,F,Masters 50-54
1,Felicia Johnson-Almy,,FL,75,69.6,,63,70,80,85,85,55,60,-65,60,102.5,120,-122.5,120,265,,,,SBD,Wraps,F,Masters 60-64
1,Michelle Abram,,WA,110,106.2,,52,-192.5,192.5,-197.5,192.5,107.5,115,-120,115,182.5,192.5,-205,192.5,500,,,,SBD,Wraps,F,Masters 50-54
1,Matias Daniel Quiñinao Peña,Chile,,67.5,66.3,,23,180,-190,-190,180,95,100,105,105,220,235,250,250,535,,,,SBD,Wraps,M,Juniors 20-23
1,Adam Drozdowski,,VA,75,74.5,,18,220,-240,240,240,115,120,-122.5,120,255,277.5,-280,277.5,637.5,,,,SBD,Wraps,M,Juniors 15-19
1,Arnaldo Salinas Sepúlveda,Chile,,75,73.3,,39,250,-270,-270,250,127.5,-130,130,130,250,270,280,280,660,,,,SBD,Wraps,M,Open
DQ,Chrisopher Cameron,,MA,75,69,,28,205,-225,232.5,232.5,-125,-125,-125,,-210,,,,,,,,SBD,Wraps,M,Open
1,Arlik Villanueva,Chile,,82.5,78.7,,30,250,262.5,270,270,140,147.5,152.5,152.5,252.5,272.5,-287.5,272.5,695,,,,SBD,Wraps,M,Open
2,Luis Tejo,Chile,,82.5,79.5,,33,220,230,-250,230,135,142.5,-147.5,142.5,230,240,-247.5,240,612.5,,,,SBD,Wraps,M,Open
3,Jamie Hargrove,,FL,82.5,79.8,,50,205,-225,,205,125,-137.5,-137.5,125,195,-205,205,205,535,,,,SBD,Wraps,M,Open
1,Matthew Sullivan #1,,MA,100,99.5,,27,285,300,310,310,190,197.5,200,200,330,347.5,355,355,865,,,,SBD,Wraps,M,Open
2,Alan Aparicio,Argentina,,100,99.9,,26,320,330,-340,330,155,162.5,170,170,-325,-325,325,325,825,,,,SBD,Wraps,M,Open
3,Nate Norton,,OK,100,96.6,,37,305,-322.5,327.5,327.5,187.5,195,-200,195,280,292.5,-297.5,292.5,815,,,,SBD,Wraps,M,Open
4,Craig Recore,,WA,100,100,,50,-240,240,262.5,262.5,190,-200,-200,190,280,305.5,320,320,772.5,,,,SBD,Wraps,M,Open
5,Zachary Monteverdi,,AL,100,98.8,,32,275,282.5,285,285,170,177.5,-182.5,177.5,300,-322.5,-322.5,300,762.5,,,,SBD,Wraps,M,Open
6,Daniel Carpenter #3,Australia,,100,98.8,,30,250,-262.5,-262.5,250,162.5,172.5,-177.5,172.5,255,265,-272.5,265,687.5,,,,SBD,Wraps,M,Open
DQ,Russell Yankee,,MI,100,98.1,,37,-305,315,-322.5,315,-195,-195,-195,,290,312.5,-325,312.5,,,,,SBD,Wraps,M,Open
DQ,Jesus Acevedo,Chile,,100,99.4,,25,-292.5,-300,-300,,155,162.5,170,170,257.5,267.5,-275,267.5,,,,,SBD,Wraps,M,Open
DQ,Jonathan Brogden,,NC,110,108.3,,37,-265,-265,-265,,215,222.5,-227.5,222.5,-267.5,-267.5,-267.5,,,,,,SBD,Wraps,M,Open
1,Kenneth Zimmerman,,OH,125,114.3,,27,325,340,-347.5,340,215,-227.5,-227.5,215,330,342.5,-352.5,342.5,897.5,,,,SBD,Wraps,M,Open
2,Nicolas Villalobos,Chile,,125,122.4,,26,280,320,,320,185,200,-207.5,200,300,317.5,340,340,860,,,,SBD,Wraps,M,Open
3,Sergio Mardones Meza,Chile,,125,124.1,,33,-310,310,350,350,180,200,215,215,292.5,-322.5,-322.5,292.5,857.5,,,,SBD,Wraps,M,Open
DQ,Phil Maranto,,LA,125,123.2,,40,310,-320.5,-320.5,310,182.5,192.5,-197.5,192.5,-305,-305,-305,,,,,,SBD,Wraps,M,Open
1,Ricardo Russell,,GA,140,137,,37,260,300,-305,300,220,-242.5,-242.5,220,275,325,332.5,332.5,852.5,,,,SBD,Wraps,M,Open
2,Eric LaBarge,,TX,140,138.5,,46,-227.5,227.5,272.5,272.5,220,232.5,-240.5,232.5,-250,272.5,-290,272.5,777.5,,,,SBD,Wraps,M,Open
1,Ronny Poag,,AL,75,74.1,,63,117.5,122.5,127.5,127.5,110,-117.5,117.5,117.5,167.5,175,-182.5,175,420,,,,SBD,Wraps,M,Masters 60-64
1,Anthony Bowen,,IA,82.5,81.4,,47,245,255,260,260,170,175,-182.5,175,245,-255,-255,245,680,,,,SBD,Wraps,M,Masters 45-49
1,Mario Sanchez,,TX,82.5,81,,52,182.5,192.5,200,200,137.5,143,145,145,205,215,218.5,218.5,563.5,,,,SBD,Wraps,M,Masters 50-54
2,Jamie Hargrove,,FL,82.5,79.8,,50,205,-225,,205,125,-137.5,-137.5,125,195,-205,205,205,535,,,,SBD,Wraps,M,Masters 50-54
1,Tim O'Brien #1,,FL,82.5,79.5,,56,175,190,-195,190,112.5,120,125,125,192.5,197.5,-200,197.5,512.5,,,,SBD,Wraps,M,Masters 55-59
1,Matthew Havard,,MO,90,88.8,,42,240,-262.5,-267.5,240,157.5,167.5,-172.5,167.5,240,262.5,-275,262.5,670,,,,SBD,Wraps,M,Masters 40-44
1,John Smith #6,,TX,90,89,,59,160,-165,165,165,-105,105,-112.5,105,175,180,-190,180,450,,,,SBD,Wraps,M,Masters 55-59
1,Craig Recore,,WA,100,100,,50,-240,240,262.5,262.5,190,-200,-200,190,280,305.5,320,320,772.5,,,,SBD,Wraps,M,Masters 50-54
1,Clark Sandau,,LA,100,93.7,,61,-177.5,180,-192.5,180,110,122.5,-127.5,122.5,175,192.5,-200,192.5,495,,,,SBD,Wraps,M,Masters 60-64
1,Jack Bunton,,AL,100,97.3,,68,-150,-150,150,150,-100,100,,100,167.5,185,205,205,455,,,,SBD,Wraps,M,Masters 65-69
1,Richard Landry #1,,NY,100,99.1,,75,133,142.5,-145,142.5,90,-95,95,95,160,170,175,175,412.5,,100,,SBD,Wraps,M,Masters 75-79
DQ,Adam Bell #1,,CO,110,108.4,,41,-217.5,-217.5,-217.5,,182.5,190,-195,190,-255,-255,-255,,,,,,SBD,Wraps,M,Masters 40-44
1,Peter Pauline,,GA,110,109.8,,67,130,150,-160,150,105,112.5,117.5,117.5,210,220,230,230,497.5,,,,SBD,Wraps,M,Masters 65-69
DQ,Phil Maranto,,LA,125,123.2,,40,310,-320.5,-320.5,310,182.5,192.5,-197.5,192.5,-305,-305,-305,,,,,,SBD,Wraps,M,Masters 40-44
1,Richard Brown #5,,MO,125,110.9,,50,227.5,242.5,250,250,-170,170,182.5,182.5,-227.5,235,-250,235,667.5,,,,SBD,Wraps,M,Masters 50-54
1,Charles Ford,,AL,125,120,,55,-227.5,-227.5,227.5,227.5,175,177.5,-180,177.5,265,267.5,272.5,272.5,677.5,,,,SBD,Wraps,M,Masters 55-59
1,Randy Abendroth,,TX,125,124,,67,225,230,-237.5,230,140,145,-147.5,145,232.5,240,250,250,625,,,,SBD,Wraps,M,Masters 65-69
1,Dan Whitt,,AR,125,111.5,,77,87.5,-100,100,100,82.5,92.5,97.5,97.5,-97.5,97.5,-120,97.5,295,,,,SBD,Wraps,M,Masters 75-79
1,Eric LaBarge,,TX,140,138.5,,46,-227.5,227.5,272.5,272.5,220,232.5,-240.5,232.5,-250,272.5,-290,272.5,777.5,,,,SBD,Wraps,M,Masters 45-49
1,Dan Norton,,MS,140,131.3,,65,-245,245,-260,245,147.5,157.5,-170,157.5,265,272.5,280,280,682.5,,,,SBD,Wraps,M,Masters 65-69
1,Janet Montoya,,MS,48,46.75,,23,,,,,50,52.5,55,55,,,,,55,,,,B,Raw,F,Juniors 20-23
1,Briana Negron,,FL,52,51,,23,,,,,92.5,-98,-98,92.5,,,,,92.5,,,,B,Raw,F,Juniors 20-23
1,Haley Devers,,PA,56,52.85,,21,,,,,100,-108,108,108,,,,,108,,,,B,Raw,F,Juniors 20-23
1,Briana Negron,,FL,52,51,,23,,,,,92.5,-98,-98,92.5,,,,,92.5,,,,B,Raw,F,Open
2,Michelle Tyrie,,AL,52,48.95,,37,,,,,70,-75,-75,70,,,,,70,,,,B,Raw,F,Open
3,Margie Haddon,,TX,52,50.9,,60,,,,,47.5,50,-52.5,50,,,,,50,,,,B,Raw,F,Open
1,Haley Devers,,PA,56,52.85,,21,,,,,100,-108,108,108,,,,,108,,,,B,Raw,F,Open
2,Rhonda Freeman,,KS,56,56,,42,,,,,75,77.5,-80,77.5,,,,,77.5,,,,B,Raw,F,Open
1,Teri Ivey Gehring,,AL,60,59.85,,52,,,,,87.5,92.5,-95.5,92.5,,,,,92.5,,,,B,Raw,F,Open
2,Paige Kimball,,LA,60,59.55,,32,,,,,-82.5,82.5,-87.5,82.5,,,,,82.5,,,,B,Raw,F,Open
1,Valerie Smith #1,,GA,67.5,66.4,,48,,,,,113.5,-117.5,-117.5,113.5,,,,,113.5,,,,B,Raw,F,Open
2,Melissa Ferranto,,NC,67.5,65.65,,34,,,,,92.5,97.5,-100,97.5,,,,,97.5,,,,B,Raw,F,Open
3,Tricia Dublin,,TX,67.5,65.1,,42,,,,,72.5,77.5,-82.5,77.5,,,,,77.5,,,,B,Raw,F,Open
1,Melody Watson,,TN,75,69.4,,28,,,,,100,102.5,105,105,,,,,105,,,,B,Raw,F,Open
2,Kristine Kobza,,AZ,75,74.3,,55,,,,,95,102.5,,102.5,,,,,102.5,,,,B,Raw,F,Open
1,Rebecca Gigliotti,,CA,82.5,79.9,,28,,,,,85,97.5,-102.5,97.5,,,,,97.5,,,,B,Raw,F,Open
1,Sherri Schawo,,TX,100,94.5,,60,,,,,107.5,112.5,117.5,117.5,,,,,117.5,,120,,B,Raw,F,Open
1,Margie Haddon,,TX,52,50.9,,60,,,,,47.5,50,-52.5,50,,,,,50,,,,B,Raw,F,Masters 60-64
1,Rhonda Freeman,,KS,56,56,,42,,,,,75,77.5,-80,77.5,,,,,77.5,,,,B,Raw,F,Masters 40-44
1,Rebecca Carter,,FL,56,54.9,,56,,,,,60,65,67.5,67.5,,,,,67.5,,,,B,Raw,F,Masters 55-59
1,Teri Ivey Gehring,,AL,60,59.85,,52,,,,,87.5,92.5,-95.5,92.5,,,,,92.5,,,,B,Raw,F,Masters 50-54
1,Tricia Dublin,,TX,67.5,65.1,,42,,,,,72.5,77.5,-82.5,77.5,,,,,77.5,,,,B,Raw,F,Masters 40-44
2,Gin Havard,,MO,67.5,61.8,,42,,,,,55,60,62.5,62.5,,,,,62.5,,,,B,Raw,F,Masters 40-44
1,Valerie Smith #1,,GA,67.5,66.4,,48,,,,,113.5,-117.5,-117.5,113.5,,,,,113.5,,,,B,Raw,F,Masters 45-49
1,Jessica Skarin,,LA,75,74.05,,40,,,,,80,85,90,90,,,,,90,,,,B,Raw,F,Masters 40-44
1,Kristine Kobza,,AZ,75,74.3,,55,,,,,95,102.5,,102.5,,,,,102.5,,,,B,Raw,F,Masters 55-59
1,Mari Saydal,,FL,82.5,81.9,,55,,,,,-67.5,67.5,72.5,72.5,,,,,72.5,,,,B,Raw,F,Masters 55-59
1,Leah Michael,,LA,82.5,79.9,,67,,,,,93,100,105,105,,,,,105,,,,B,Raw,F,Masters 65-69
1,Maria Leticia Bertotto,Argentina,,90,89.25,,51,,,,,127.5,132.5,137.5,137.5,,,,,137.5,,,,B,Raw,F,Masters 50-54
1,Tazzie Colomb,,LA,90,87.3,,56,,,,,92.5,102.5,-107.5,102.5,,,,,102.5,,,,B,Raw,F,Masters 55-59
1,Lisa Pepper,,AL,90,87.5,,63,,,,,-87.5,87.5,97.5,97.5,,,,,97.5,,,,B,Raw,F,Masters 60-64
1,Sherri Schawo,,TX,100,94.5,,60,,,,,107.5,112.5,117.5,117.5,,,,,117.5,,120,,B,Raw,F,Masters 60-64
2,Linda Ray,,MO,100,98.3,,62,,,,,77.5,85,-94,85,,,,,85,,,,B,Raw,F,Masters 60-64
1,Michelle Abram,,WA,110,106.2,,52,,,,,107.5,115,-120,115,,,,,115,,,,B,Raw,F,Masters 50-54
1,Thivian Chelliah,Canada,,60,60,,23,,,,,110,115,-125,115,,,,,115,,,,B,Raw,M,Juniors 20-23
1,Jacob Brandt,,OH,82.5,79.2,,17,,,,,150,157.5,-162.5,157.5,,,,,157.5,,,,B,Raw,M,Juniors 15-19
G,Travis Greenberg,,NY,82.5,81,,23,,,,,140,145,-147.5,145,,,,,145,,,,B,Raw,M,Juniors 20-23
1,Joseph Diroma,,NC,75,72.9,,38,,,,,145,150,155,155,,,,,155,,,,B,Raw,M,Open
1,David Bassett,,MS,82.5,82.5,,48,,,,,175,-180,180,180,,,,,180,,,,B,Raw,M,Open
2,Christopher Wood,,WY,82.5,77.8,,50,,,,,160,-170,170,170,,,,,170,,,,B,Raw,M,Open
3,Alexander Glover,,NY,82.5,82.2,,31,,,,,152.5,160,-165,160,,,,,160,,,,B,Raw,M,Open
4,Jacob Brandt,,OH,82.5,79.2,,17,,,,,150,157.5,-162.5,157.5,,,,,157.5,,,,B,Raw,M,Open
1,Bobby Brown,,AL,90,89.5,,40,,,,,152.5,160,165,165,,,,,165,,,,B,Raw,M,Open
1,Jared Stoops,,GA,100,95.8,,50,,,,,210,220.5,227.5,227.5,,,,,227.5,,,,B,Raw,M,Open
2,Jim Smith #3,,MS,100,95.4,,53,,,,,200,210,-221,210,,,,,210,,,,B,Raw,M,Open
3,Craig Recore,,WA,100,100,,50,,,,,190,-200,-200,190,,,,,190,,,,B,Raw,M,Open
4,Keith Javery,,MI,100,96.4,,59,,,,,140,150,-157.5,150,,,,,150,,,,B,Raw,M,Open
1,Jonathan Brogden,,NC,110,108.3,,37,,,,,215,222.5,-227.5,222.5,,,,,222.5,,,,B,Raw,M,Open
2,Ryan Kimball,,LA,110,109.2,,35,,,,,195,202.5,207.5,207.5,,,,,207.5,,,,B,Raw,M,Open
1,Ron Bailey,,GA,125,119.7,,51,,,,,185,210,-217.5,210,,,,,210,,,,B,Raw,M,Open
2,Chris Knauer,,WA,125,123.2,,53,,,,,200,205,207.5,207.5,,,,,207.5,,,,B,Raw,M,Open
3,Nicolas Villalobos,Chile,,125,122.4,,26,,,,,185,200,-207.5,200,,,,,200,,,,B,Raw,M,Open
4,Jason Ballard,,AL,125,117.5,,41,,,,,150,160,-170,160,,,,,160,,,,B,Raw,M,Open
1,Eric LaBarge,,TX,140,138.5,,46,,,,,220,232.5,-240.5,232.5,,,,,232.5,,,,B,Raw,M,Open
2,Eugene Bazemore,,GA,140,137.1,,30,,,,,227.5,-242.5,-242.5,227.5,,,,,227.5,,,,B,Raw,M,Open
3,Ricardo Russell,,GA,140,137,,37,,,,,220,-242.5,-242.5,220,,,,,220,,,,B,Raw,M,Open
4,Stephen Hornatko,,MD,140,138.6,,49,,,,,170,175,-182.5,175,,,,,175,,,,B,Raw,M,Open
1,Kole Carter,,MO,140+,174.1,,60,,,,,-245,-245,245,245,,,,,245,,,,B,Raw,M,Open
1,Lon Kilgore,,MO,67.5,67.4,,63,,,,,92.5,-98,98,98,,,,,98,,,,B,Raw,M,Masters 60-64
1,Iosif Plagov,,IL,67.5,67,,87,,,,,75,80,-85,80,,,,,80,,,,B,Raw,M,Masters 80+
2,Len Bryson,,AL,67.5,66.5,,83,,,,,-65,70,-72.5,70,,,,,70,,,,B,Raw,M,Masters 80+
1,Ryan Hudson,,OR,75,74.9,,43,,,,,130,137.5,-140,137.5,,,,,137.5,,,,B,Raw,M,Masters 40-44
1,David Bassett,,MS,82.5,82.5,,48,,,,,175,-180,180,180,,,,,180,,,,B,Raw,M,Masters 45-49
2,David Burgner,,VA,82.5,80.5,,47,,,,,137.5,145,150,150,,,,,150,,,,B,Raw,M,Masters 45-49
1,Christopher Wood,,WY,82.5,77.8,,50,,,,,160,-170,170,170,,,,,170,,,,B,Raw,M,Masters 50-54
1,David Patterson #1,,LA,82.5,81.8,,61,,,,,115,122.5,-130,122.5,,,,,122.5,,,,B,Raw,M,Masters 60-64
2,Joe Hays,,MN,82.5,81.8,,62,,,,,105,110,112.5,112.5,,,,,112.5,,,,B,Raw,M,Masters 60-64
1,Paul Hansen,,KS,82.5,81.9,,72,,,,,105,107.5,110,110,,,,,110,,,,B,Raw,M,Masters 70-74
1,Matthew Havard,,MO,90,88.8,,42,,,,,157.5,167.5,-172.5,167.5,,,,,167.5,,,,B,Raw,M,Masters 40-44
2,Bobby Brown,,AL,90,89.5,,40,,,,,152.5,160,165,165,,,,,165,,,,B,Raw,M,Masters 40-44
1,Perry Johnson,,MS,90,88.6,,50,,,,,-152.5,157.5,162.5,162.5,,,,,162.5,,,,B,Raw,M,Masters 50-54
2,Wayne Small,,TX,90,85.3,,53,,,,,147.5,-157.5,-157.5,147.5,,,,,147.5,,,,B,Raw,M,Masters 50-54
1,Jeff Graham,,CA,90,89.9,,61,,,,,-190,195,202.5,202.5,,,,,202.5,,,,B,Raw,M,Masters 60-64
1,Jared Stoops,,GA,100,95.8,,50,,,,,210,220.5,227.5,227.5,,,,,227.5,,,,B,Raw,M,Masters 50-54
2,Jim Smith #3,,MS,100,95.4,,53,,,,,200,210,-221,210,,,,,210,,,,B,Raw,M,Masters 50-54
3,Vance Wallace,,MO,100,97.4,,51,,,,,182.5,195,-197.5,195,,,,,195,,,,B,Raw,M,Masters 50-54
4,Craig Recore,,WA,100,100,,50,,,,,190,-200,-200,190,,,,,190,,,,B,Raw,M,Masters 50-54
1,Keith Javery,,MI,100,96.4,,59,,,,,140,150,-157.5,150,,,,,150,,,,B,Raw,M,Masters 55-59
1,Sam Smith #1,,TN,100,98.5,,70,,,,,-145,145,-154,145,,,,,145,,,,B,Raw,M,Masters 70-74
1,Adam Bell #1,,CO,110,108.4,,41,,,,,182.5,190,-195,190,,,,,190,,,,B,Raw,M,Masters 40-44
2,Sean Normand,,GA,110,105.2,,43,,,,,170,-177.5,-177.5,170,,,,,170,,,,B,Raw,M,Masters 40-44
1,Anthony Ford,,AL,110,107.8,,53,,,,,182.5,-192.5,,182.5,,,,,182.5,,,,B,Raw,M,Masters 50-54
1,Tod Miller,,GA,110,108.5,,61,,,,,170,177.5,182.5,182.5,,,,,182.5,,,,B,Raw,M,Masters 60-64
1,Floyd Hayes,,MD,110,105.1,,79,,,,,87.5,-92.5,-92.5,87.5,,,,,87.5,,,,B,Raw,M,Masters 75-79
1,Jason Ballard,,AL,125,117.5,,41,,,,,150,160,-170,160,,,,,160,,,,B,Raw,M,Masters 40-44
1,Ron Bailey,,GA,125,119.7,,51,,,,,185,210,-217.5,210,,,,,210,,,,B,Raw,M,Masters 50-54
2,Chris Knauer,,WA,125,123.2,,53,,,,,200,205,207.5,207.5,,,,,207.5,,,,B,Raw,M,Masters 50-54
3,Eugene Malbrough,,TX,125,122,,53,,,,,197.5,202.5,205,205,,,,,205,,,,B,Raw,M,Masters 50-54
1,Charles Ford,,AL,125,120,,55,,,,,175,177.5,-180,177.5,,,,,177.5,,,,B,Raw,M,Masters 55-59
2,Charles Lambert #1,,VA,125,123.3,,57,,,,,125,137.5,142.5,142.5,,,,,142.5,,,,B,Raw,M,Masters 55-59
1,Donald Carter,,WV,125,116.2,,70,,,,,150,170,-185,170,,,,,170,,,,B,Raw,M,Masters 70-74
1,Eric LaBarge,,TX,140,138.5,,46,,,,,220,232.5,-240.5,232.5,,,,,232.5,,,,B,Raw,M,Masters 45-49
2,Brandon Zermeno,,AZ,140,133.4,,49,,,,,165,175,180,180,,,,,180,,,,B,Raw,M,Masters 45-49
3,Stephen Hornatko,,MD,140,138.6,,49,,,,,170,175,-182.5,175,,,,,175,,,,B,Raw,M,Masters 45-49
1,Phil Deaton,,TX,140,136.2,,58,,,,,172.5,-182.5,-182.5,172.5,,,,,172.5,,,,B,Raw,M,Masters 55-59
2,Michael Lloyd,,GA,140,135,,55,,,,,150,165,-175,165,,,,,165,,,,B,Raw,M,Masters 55-59
1,Yuriy Fedotovskikh,,IA,140,126.6,,74,,,,,115,125,135,135,,,,,135,,,,B,Raw,M,Masters 70-74
1,Marvin Williford,,AL,140+,161.2,,48,,,,,177.5,185,190,190,,,,,190,,,,B,Raw,M,Masters 45-49
1,Robert Gains,,VA,140+,151,,59,,,,,-182.5,182.5,,182.5,,,,,182.5,,,,B,Raw,M,Masters 55-59
1,Kole Carter,,MO,140+,174.1,,60,,,,,-245,-245,245,245,,,,,245,,,,B,Raw,M,Masters 60-64
1,Donald Norton,,MO,140+,176.3,,65,,,,,-145,145,150,150,,,,,150,,160,,B,Raw,M,Masters 65-69
1,Janet Montoya,,MS,48,46.75,,23,,,,,,,,,125,132.5,-140,132.5,132.5,,,,D,Raw,F,Juniors 20-23
1,Briana Negron,,FL,52,51,,23,,,,,,,,,167.5,-175.5,-175.5,167.5,167.5,,,,D,Raw,F,Juniors 20-23
1,Tori Lam,,UT,48,47.7,,33,,,,,,,,,30,,,30,30,,,,D,Raw,F,Open
1,Briana Negron,,FL,52,51,,23,,,,,,,,,167.5,-175.5,-175.5,167.5,167.5,,,,D,Raw,F,Open
2,Gisela Salazar,,ID,52,50.7,,28,,,,,,,,,155,165,-170,165,165,,,,D,Raw,F,Open
3,Michelle Tyrie,,AL,52,48.95,,37,,,,,,,,,117.5,122.5,127.5,127.5,127.5,,,,D,Raw,F,Open
4,Margie Haddon,,TX,52,50.9,,60,,,,,,,,,110,112.5,117.5,117.5,117.5,,,,D,Raw,F,Open
1,Paige Kimball,,LA,60,59.55,,32,,,,,,,,,165,-175,-175,165,165,,,,D,Raw,F,Open
1,Valerie Smith #1,,GA,67.5,66.4,,48,,,,,,,,,185,200.5,-212.5,200.5,200.5,,,,D,Raw,F,Open
2,Melissa Ferranto,,NC,67.5,65.65,,34,,,,,,,,,175,185,192.5,192.5,192.5,,,,D,Raw,F,Open
3,Michelle Mazulis,,NM,67.5,65.75,,54,,,,,,,,,155,172.5,-182.5,172.5,172.5,,,,D,Raw,F,Open
4,Tricia Dublin,,TX,67.5,65.1,,42,,,,,,,,,142.5,155,165,165,165,,,,D,Raw,F,Open
1,Kristine Kobza,,AZ,75,74.3,,55,,,,,,,,,185,197.5,203,203,203,,,,D,Raw,F,Open
1,Rebecca Gigliotti,,CA,82.5,79.9,,28,,,,,,,,,180,190,-202.5,190,190,,,,D,Raw,F,Open
1,Mariela Ortellado,Argentina,,100,99,,37,,,,,,,,,220,230,240,240,240,,,,D,Raw,F,Open
1,Margie Haddon,,TX,52,50.9,,60,,,,,,,,,110,112.5,117.5,117.5,117.5,,,,D,Raw,F,Masters 60-64
1,Rebecca Carter,,FL,56,54.9,,56,,,,,,,,,107.5,115,117.5,117.5,117.5,,,,D,Raw,F,Masters 55-59
1,Tricia Dublin,,TX,67.5,65.1,,42,,,,,,,,,142.5,155,165,165,165,,,,D,Raw,F,Masters 40-44
2,Gin Havard,,MO,67.5,61.8,,42,,,,,,,,,140,152.5,162.5,162.5,162.5,,,,D,Raw,F,Masters 40-44
1,Valerie Smith #1,,GA,67.5,66.4,,48,,,,,,,,,185,200.5,-212.5,200.5,200.5,,,,D,Raw,F,Masters 45-49
1,Michelle Mazulis,,NM,67.5,65.75,,54,,,,,,,,,155,172.5,-182.5,172.5,172.5,,,,D,Raw,F,Masters 50-54
1,Natalie Terrell,,AL,67.5,66.15,,62,,,,,,,,,165,175,177.5,177.5,177.5,,,,D,Raw,F,Masters 60-64
1,Jessica Skarin,,LA,75,74.05,,40,,,,,,,,,132.5,145,155,155,155,,,,D,Raw,F,Masters 40-44
1,Kristine Kobza,,AZ,75,74.3,,55,,,,,,,,,185,197.5,203,203,203,,,,D,Raw,F,Masters 55-59
1,Leah Michael,,LA,82.5,79.9,,67,,,,,,,,,152.5,167.5,182.5,182.5,182.5,,,,D,Raw,F,Masters 65-69
1,Maria Leticia Bertotto,Argentina,,90,89.25,,51,,,,,,,,,230,240.5,245,245,245,,,,D,Raw,F,Masters 50-54
1,Tazzie Colomb,,LA,90,87.3,,56,,,,,,,,,130,142.5,160,160,160,,,,D,Raw,F,Masters 55-59
1,Linda Ray,,MO,100,98.3,,62,,,,,,,,,160,175,-180,175,175,,,,D,Raw,F,Masters 60-64
1,Kay Lynne Firsching,,MO,100,93.4,,67,,,,,,,,,115,125,132.5,132.5,132.5,,,,D,Raw,F,Masters 65-69
1,Michelle Abram,,WA,110,106.2,,52,,,,,,,,,182.5,192.5,-205,192.5,192.5,,,,D,Raw,F,Masters 50-54
1,Thivian Chelliah,Canada,,60,60,,23,,,,,,,,,160,162.5,-180,162.5,162.5,,,,D,Raw,M,Juniors 20-23
1,Andrew Ai,,NC,67.5,66.8,,17,,,,,,,,,180,190,200,200,200,,,,D,Raw,M,Juniors 15-19
1,Adam Drozdowski,,VA,75,74.5,,18,,,,,,,,,255,277.5,-280,277.5,277.5,,,,D,Raw,M,Juniors 15-19
2,Andrew Thomas,,NC,75,69.6,,17,,,,,,,,,175,182.5,,182.5,182.5,,,,D,Raw,M,Juniors 15-19
1,Bob Walters,,TN,75,74.1,,58,,,,,,,,,187.5,-190,-190,187.5,187.5,,,,D,Raw,M,Open
1,Andrew Linch,,MS,82.5,81.8,,29,,,,,,,,,305,322.5,-330,322.5,322.5,,,,D,Raw,M,Open
2,Alexander Glover,,NY,82.5,82.2,,31,,,,,,,,,-265,275,-282.5,275,275,,,,D,Raw,M,Open
3,David Gibson #3,,GA,82.5,80,,43,,,,,,,,,220,237.5,257.5,257.5,257.5,,,,D,Raw,M,Open
4,Romeo Dublin,,TX,82.5,81.6,,47,,,,,,,,,230,242.5,-252.5,242.5,242.5,,,,D,Raw,M,Open
1,Adam Rubin,,OH,90,87.2,,29,,,,,,,,,257.5,-272.5,-272.5,257.5,257.5,,,,D,Raw,M,Open
1,Matthew Sullivan #1,,MA,100,99.5,,27,,,,,,,,,330,347.5,355,355,355,,,,D,Raw,M,Open
2,Craig Recore,,WA,100,100,,50,,,,,,,,,280,305.5,320,320,320,,,,D,Raw,M,Open
3,Zachary Monteverdi,,AL,100,98.8,,32,,,,,,,,,300,-322.5,-322.5,300,300,,,,D,Raw,M,Open
4,Edward Baca,,NM,100,94.4,,41,,,,,,,,,270,282.5,-292.5,282.5,282.5,,,,D,Raw,M,Open
1,Eric Chatman,,MS,110,108.9,,27,,,,,,,,,325,342.5,-352.5,342.5,342.5,,,,D,Raw,M,Open
2,Ryan Kimball,,LA,110,109.2,,35,,,,,,,,,305,327.5,-345,327.5,327.5,,,,D,Raw,M,Open
1,Kenneth Zimmerman,,OH,125,114.3,,27,,,,,,,,,330,342.5,-352.5,342.5,342.5,,,,D,Raw,M,Open
1,Eugene Bazemore,,GA,140,137.1,,30,,,,,,,,,320,340,350,350,350,,,,D,Raw,M,Open
2,Eric LaBarge,,TX,140,138.5,,46,,,,,,,,,-250,272.5,-290,272.5,272.5,,,,D,Raw,M,Open
1,Geomar Jaramillo,Aruba,,140+,167.2,,41,,,,,,,,,336.5,,,336.5,336.5,,,,D,Raw,M,Open
1,Ryan Hudson,,OR,75,74.9,,43,,,,,,,,,220,227.5,232.5,232.5,232.5,,,,D,Raw,M,Masters 40-44
1,Bob Walters,,TN,75,74.1,,58,,,,,,,,,187.5,-190,-190,187.5,187.5,,,,D,Raw,M,Masters 55-59
1,David Gibson #3,,GA,82.5,80,,43,,,,,,,,,220,237.5,257.5,257.5,257.5,,,,D,Raw,M,Masters 40-44
1,Romeo Dublin,,TX,82.5,81.6,,47,,,,,,,,,230,242.5,-252.5,242.5,242.5,,,,D,Raw,M,Masters 45-49
1,Joe Hays,,MN,82.5,81.8,,62,,,,,,,,,195,205,217.5,217.5,217.5,,,,D,Raw,M,Masters 60-64
1,Matthew Havard,,MO,90,88.8,,42,,,,,,,,,240,262.5,-275,262.5,262.5,,,,D,Raw,M,Masters 40-44
1,Christopher Rountree,,TX,90,89.4,,46,,,,,,,,,255,272.5,-282.5,272.5,272.5,,,,D,Raw,M,Masters 45-49
1,John Rowland,,GA,90,89.9,,51,,,,,,,,,275,287.5,-298,287.5,287.5,,,,D,Raw,M,Masters 50-54
2,Shane Shorter,,FL,90,88.6,,53,,,,,,,,,232.5,242.5,255,255,255,,,,D,Raw,M,Masters 50-54
1,Edward Baca,,NM,100,94.4,,41,,,,,,,,,270,282.5,-292.5,282.5,282.5,,,,D,Raw,M,Masters 40-44
1,Vasil Gushterov,,FL,100,99.4,,47,,,,,,,,,305,325,340,340,340,,,350,D,Raw,M,Masters 45-49
2,Charles Weidner,,NV,100,96.2,,48,,,,,,,,,290,297.5,-305,297.5,297.5,,,,D,Raw,M,Masters 45-49
1,Craig Recore,,WA,100,100,,50,,,,,,,,,280,305.5,320,320,320,,,,D,Raw,M,Masters 50-54
DQ,Anthony Ford,,AL,110,107.8,,53,,,,,,,,,-240,-240,-240,,,,,,D,Raw,M,Masters 50-54
1,Jeffrey Owens,,GA,110,104.9,,64,,,,,,,,,285,300,-315,300,300,,,,D,Raw,M,Masters 60-64
1,Peter Pauline,,GA,110,109.8,,67,,,,,,,,,210,220,230,230,230,,,,D,Raw,M,Masters 65-69
1,Floyd Hayes,,MD,110,105.1,,79,,,,,,,,,165,178.5,182.5,182.5,182.5,,,,D,Raw,M,Masters 75-79
1,Jason Ballard,,AL,125,117.5,,41,,,,,,,,,227.5,235,-245,235,235,,,,D,Raw,M,Masters 40-44
1,Austen Horton,,TX,125,122.5,,45,,,,,,,,,215,247.5,272.5,272.5,272.5,,,,D,Raw,M,Masters 45-49
1,Ron Bailey,,GA,125,119.7,,51,,,,,,,,,235,-247.5,247.5,247.5,247.5,,,,D,Raw,M,Masters 50-54
1,Charles Ford,,AL,125,120,,55,,,,,,,,,265,267.5,272.5,272.5,272.5,,,,D,Raw,M,Masters 55-59
1,Jacques Morgan,,NY,125,114.8,,60,,,,,,,,,210,220,225,225,225,,,,D,Raw,M,Masters 60-64
1,Eric LaBarge,,TX,140,138.5,,46,,,,,,,,,-250,272.5,-290,272.5,272.5,,,,D,Raw,M,Masters 45-49
1,Geomar Jaramillo,Aruba,,140+,167.2,,41,,,,,,,,,336.5,,,336.5,336.5,,,,D,Raw,M,Masters 40-44
1,Marvin Williford,,AL,140+,161.2,,48,,,,,,,,,250,272.5,-295,272.5,272.5,,,,D,Raw,M,Masters 45-49
